# Blender MTL File: '1.3DS'
# Material Count: 8

newmtl Material_#1.001
Ns 96.078431
Ka 1.000000 1.000000 1.000000
Kd 0.756078 0.561569 0.464314
Ks 0.500000 0.500000 0.500000
Ke 0.000000 0.000000 0.000000
Ni 1.000000
d 1.000000
illum 2

newmtl Material_#3.001
Ns 96.078431
Ka 1.000000 1.000000 1.000000
Kd 0.740392 0.448627 0.332549
Ks 0.500000 0.468627 0.443137
Ke 0.000000 0.000000 0.000000
Ni 1.000000
d 1.000000
illum 2

newmtl Material_#5.001
Ns 96.078431
Ka 1.000000 1.000000 1.000000
Kd 0.426667 0.480000 0.589804
Ks 0.449020 0.449020 0.449020
Ke 0.000000 0.000000 0.000000
Ni 1.000000
d 1.000000
illum 2

newmtl Material_#9.001
Ns 96.078431
Ka 1.000000 1.000000 1.000000
Kd 0.109804 0.000000 0.000000
Ks 0.000000 0.000000 0.000000
Ke 0.000000 0.000000 0.000000
Ni 1.000000
d 1.000000
illum 2

newmtl Standard_21
Ns 96.078431
Ka 1.000000 1.000000 1.000000
Kd 0.467451 0.467451 0.467451
Ks 0.449020 0.449020 0.449020
Ke 0.000000 0.000000 0.000000
Ni 1.000000
d 1.000000
illum 2

newmtl f12-shangyi.001
Ns 96.078431
Ka 1.000000 1.000000 1.000000
Kd 0.000000 0.000000 0.000000
Ks 0.449020 0.449020 0.449020
Ke 0.000000 0.000000 0.000000
Ni 1.000000
d 1.000000
illum 2

newmtl f12-skin.001
Ns 96.078431
Ka 1.000000 1.000000 1.000000
Kd 0.053333 0.000000 0.000000
Ks 0.000000 0.000000 0.000000
Ke 0.000000 0.000000 0.000000
Ni 1.000000
d 1.000000
illum 2

newmtl f12-socks.001
Ns 96.078431
Ka 1.000000 1.000000 1.000000
Kd 0.800000 0.746667 0.796863
Ks 0.500000 0.466667 0.498039
Ke 0.000000 0.000000 0.000000
Ni 1.000000
d 1.000000
illum 2
