# Blender MTL File: 'stage.blend'
# Material Count: 2

newmtl M1
Ns 96.078431
Ka 1.000000 1.000000 1.000000
Kd 0.640000 0.129580 0.090089
Ks 0.500000 0.274046 0.076106
Ke 0.000000 0.000000 0.000000
Ni 1.000000
d 1.000000
illum 2

newmtl None
Ns 0
Ka 0.000000 0.000000 0.000000
Kd 0.8 0.8 0.8
Ks 0.8 0.8 0.8
d 1
illum 2
