# 3ds Max Wavefront OBJ Exporter v0.94b - (c)2007 guruware
# File Created: 15.02.2016 03:28:01

newmtl wire_166202240
	Ns 32
	d 1
	Tr 1
	Tf 1 1 1
	illum 2
	Ka 0.0000 0.0000 0.0000
	Kd 0.6510 0.7922 0.9412
	Ks 0.3500 0.3500 0.3500

newmtl wire_224198087
	Ns 32
	d 1
	Tr 1
	Tf 1 1 1
	illum 2
	Ka 0.0000 0.0000 0.0000
	Kd 0.8784 0.7765 0.3412
	Ks 0.3500 0.3500 0.3500

newmtl wire_008110134
	Ns 32
	d 1
	Tr 1
	Tf 1 1 1
	illum 2
	Ka 0.0000 0.0000 0.0000
	Kd 0.0314 0.4314 0.5255
	Ks 0.3500 0.3500 0.3500

newmtl wire_196088225
	Ns 32
	d 1
	Tr 1
	Tf 1 1 1
	illum 2
	Ka 0.0000 0.0000 0.0000
	Kd 0.7686 0.3451 0.8824
	Ks 0.3500 0.3500 0.3500

newmtl wire_028028177
	Ns 32
	d 1
	Tr 1
	Tf 1 1 1
	illum 2
	Ka 0.0000 0.0000 0.0000
	Kd 0.1098 0.1098 0.6941
	Ks 0.3500 0.3500 0.3500

newmtl wire_134006006
	Ns 32
	d 1
	Tr 1
	Tf 1 1 1
	illum 2
	Ka 0.0000 0.0000 0.0000
	Kd 0.5255 0.0235 0.0235
	Ks 0.3500 0.3500 0.3500

newmtl wire_108008136
	Ns 32
	d 1
	Tr 1
	Tf 1 1 1
	illum 2
	Ka 0.0000 0.0000 0.0000
	Kd 0.4235 0.0314 0.5333
	Ks 0.3500 0.3500 0.3500

newmtl wire_006134006
	Ns 32
	d 1
	Tr 1
	Tf 1 1 1
	illum 2
	Ka 0.0000 0.0000 0.0000
	Kd 0.0235 0.5255 0.0235
	Ks 0.3500 0.3500 0.3500

newmtl wire_113134006
	Ns 32
	d 1
	Tr 1
	Tf 1 1 1
	illum 2
	Ka 0.0000 0.0000 0.0000
	Kd 0.4431 0.5255 0.0235
	Ks 0.3500 0.3500 0.3500

newmtl Material__3
	Ns 0.0000
	Ni 1.5000
	d 1.0000
	Tr 1.0000
	Tf 1.0000 1.0000 1.0000 
	illum 2
	Ka 0.0000 0.0000 0.0000
	Kd 0.9255 0.5608 0.4157
	Ks 0.0000 0.0000 0.0000
	Ke 0.3054 0.1851 0.1372
	map_Ka F:\DESIGN\TURBOSQUID\Female\Face.psd
	map_Kd F:\DESIGN\TURBOSQUID\Female\Face.psd

newmtl Material__1
	Ns 25.0000
	Ni 1.5000
	d 1.0000
	Tr 1.0000
	Tf 1.0000 1.0000 1.0000 
	illum 2
	Ka 0.0000 0.0000 0.0000
	Kd 0.9451 0.7020 0.5804
	Ks 0.0500 0.0500 0.0500
	Ke 0.3119 0.2316 0.1915
	map_Ka F:\DESIGN\TURBOSQUID\Female\Face.psd
	map_Kd F:\DESIGN\TURBOSQUID\Female\Face.psd

newmtl Standard_21
	Ns 10.0000
	Ni 1.5000
	d 1.0000
	Tr 1.0000
	Tf 1.0000 1.0000 1.0000 
	illum 2
	Ka 0.0000 0.0000 0.0000
	Kd 0.5880 0.5880 0.5880
	Ks 0.0000 0.0000 0.0000
	Ke 0.0000 0.0000 0.0000
	map_Ka F:\DESIGN\Liberary\Texture Material\14936012c31a.jpg
	map_Kd F:\DESIGN\Liberary\Texture Material\14936012c31a.jpg

newmtl wire_153228184
	Ns 32
	d 1
	Tr 1
	Tf 1 1 1
	illum 2
	Ka 0.0000 0.0000 0.0000
	Kd 0.6000 0.8941 0.7216
	Ks 0.3500 0.3500 0.3500

newmtl f12_socks
	Ns 25.0000
	Ni 1.5000
	d 1.0000
	Tr 1.0000
	Tf 1.0000 1.0000 1.0000 
	illum 2
	Ka 0.0000 0.0000 0.0000
	Kd 1.0000 0.9333 0.9961
	Ks 0.0500 0.0467 0.0498
	Ke 0.2300 0.2147 0.2291
	map_Ka Map__16_Gradient.tga
	map_Kd Map__16_Gradient.tga

newmtl Material__5
	Ns 25.0000
	Ni 1.5000
	d 1.0000
	Tr 1.0000
	Tf 1.0000 1.0000 1.0000 
	illum 2
	Ka 0.0000 0.0000 0.0000
	Kd 0.5333 0.6000 0.7373
	Ks 0.0450 0.0450 0.0450
	Ke 0.0000 0.0000 0.0000

newmtl f12_shangyi
	Ns 40.0000
	Ni 1.5000
	d 1.0000
	Tr 1.0000
	Tf 1.0000 1.0000 1.0000 
	illum 2
	Ka 0.0000 0.0000 0.0000
	Kd 0.0000 0.0000 0.0000
	Ks 0.0000 0.0000 0.0000
	Ke 0.0000 0.0000 0.0000
	map_Ka F:\DESIGN\Liberary\Texture Material\depositphotos_16862801-Batik-indonesia27.jpg
	map_Kd F:\DESIGN\Liberary\Texture Material\depositphotos_16862801-Batik-indonesia27.jpg

newmtl f12_shouzhuo
	Ns 25.0000
	Ni 1.5000
	d 1.0000
	Tr 1.0000
	Tf 1.0000 1.0000 1.0000 
	illum 2
	Ka 0.0000 0.0000 0.0000
	Kd 0.9098 0.9333 0.9647
	Ks 0.0450 0.0450 0.0450
	Ke 0.0000 0.0000 0.0000
	map_Ka Map__15_Gradient.tga
	map_Kd Map__15_Gradient.tga
